{
  "version": 3,
  "artifactType": {
    "type": "APK",
    "kind": "Directory"
  },
  "applicationId": "com.red.variablecompilacion",
  "variantName": "develop",
  "elements": [
    {
      "type": "SINGLE",
      "filters": [],
      "attributes": [],
      "versionCode": 1,
      "versionName": "1.0",
<<<<<<< HEAD
      "outputFile": "app-develop.apk"
=======
      "outputFile": "app-develop-unsigned.apk"
>>>>>>> 43e8310bd26b9a5e7f77e96cff8ec0a92c9bed48
    }
  ],
  "elementType": "File"
}